0  0
1  0.0499625
2  0.0999259
3  0.149891
4  0.199859
5  0.24983
6  0.299806
7  0.349786
8  0.399772
9  0.449763
10  0.49976
11  0.549763
12  0.599771
13  0.649786
14  0.699805
15  0.74983
16  0.799859
17  0.849891
18  0.899925
19  0.949962
20  1
