0  0
1  0.0499957
2  0.0999915
3  0.149987
4  0.199984
5  0.24998
6  0.299978
7  0.349975
8  0.399973
9  0.449972
10  0.499971
11  0.549972
12  0.599973
13  0.649975
14  0.699977
15  0.74998
16  0.799984
17  0.849987
18  0.899991
19  0.949996
20  1
